{
    "DCs": ["DC_CANBERRA", "DC_SEOUL", "DC_PARIS", "DC_VIRGINIA","DC_DUBAI", "DC_SINGAPORE", "DC_PUNE", "DC_JOHANNESBURG", "DC_SP"], 
    "PUE": {
        "DC_CANBERRA":1.405, 
        "DC_SEOUL":1.405, 
        "DC_PARIS":1.185, 
        "DC_VIRGINIA":1.17,
        "DC_DUBAI":1.185,
        "DC_SINGAPORE":1.405, 
        "DC_PUNE": 1.405, 
        "DC_JOHANNESBURG": 1.185, 
        "DC_SP": 1.17
    },  
    "pIdleDC":
    {
        "DC_CANBERRA":2250400, 
        "DC_SEOUL":2250400, 
        "DC_PARIS":2250400, 
        "DC_VIRGINIA":2250400,
        "DC_DUBAI":2250400,
        "DC_SINGAPORE":2250400, 
        "DC_PUNE":2250400, 
        "DC_JOHANNESBURG": 2250400, 
        "DC_SP": 2250400
    },
    "C":
    {
        "DC_CANBERRA":278400,
        "DC_SEOUL":278400, 
        "DC_PARIS":278400,
        "DC_VIRGINIA":278400,
        "DC_DUBAI":278400,
        "DC_SINGAPORE":278400,
        "DC_PUNE":278400,
        "DC_JOHANNESBURG":278400,
        "DC_SP":278400
    },
    "pNetIntraDC":   {
        "DC_CANBERRA":149760, 
        "DC_SEOUL":149760, 
        "DC_PARIS":149760, 
        "DC_VIRGINIA":149760,
        "DC_DUBAI":149760,
        "DC_SINGAPORE":149760, 
        "DC_PUNE":149760, 
        "DC_JOHANNESBURG":149760, 
        "DC_SP":149760 
    },
    "length_k": 8761,
    "workload_file": "input/total_workload.csv",
    "solar_irradiance_dc_file_path":
    {   
        "DC_CANBERRA":"input/solar_irradiation_data/year/canberra/2021.csv", 
        "DC_SEOUL":"input/solar_irradiation_data/year/seoul/2021.csv",
        "DC_PARIS":"input/solar_irradiation_data/year/paris/2021.csv",
        "DC_VIRGINIA":"input/solar_irradiation_data/year/virginia/2021.csv",
        "DC_DUBAI":"input/solar_irradiation_data/year/dubai/2021.csv",
        "DC_SINGAPORE":"input/solar_irradiation_data/year/singapore/2021.csv", 
        "DC_PUNE":"input/solar_irradiation_data/year/pune/2021.csv", 
        "DC_JOHANNESBURG":"input/solar_irradiation_data/year/johannesburg/2021.csv", 
        "DC_SP":"input/solar_irradiation_data/year/sp/2021.csv"
    
    },
    "grid_co2" :  {"DC_CANBERRA":99999.99, 
        "DC_SEOUL":99999.99, 
        "DC_PARIS":99999.99, 
        "DC_VIRGINIA":99999.99,
        "DC_DUBAI":99999.99,
        "DC_SINGAPORE":99999.99, 
        "DC_PUNE":99999.99, 
        "DC_JOHANNESBURG":99999.99, 
        "DC_SP":99999.99 },
    
    "pv_co2":   {
        "DC_CANBERRA":29.71, 
        "DC_SEOUL":34.0, 
        "DC_PARIS":39.93, 
        "DC_VIRGINIA":31.71,
        "DC_DUBAI":24.84,
        "DC_SINGAPORE":36.19, 
        "DC_PUNE":27.96, 
        "DC_JOHANNESBURG":24.9, 
        "DC_SP":27.99
     },
    
     "bat_co2" : 5900.0,
     "eta_ch": 0.85,
     "eta_dch": 1.176470588,
     "eta_pv" : 0.15,
     "pCore":10.25
    
    }